[
	{
		"model": "app.heartcenter",
		"pk": 1,
		"fields": {
			"short_name": "insel",
			"name": "Inselspital Bern",
			"address": "Zentrum für angeborene Herzfehler\nUniversitätsklinik für Kardiologie\nFreiburgstrasse\n3010 Bern",
			"phone": "+41 31 632 78 59"
		}
	},
	{
		"model": "app.heartcenter",
		"pk": 2,
		"fields": {
			"short_name": "ukbb",
			"name": "Universitäts-Kinderspital beider Basel",
			"address": "Kardiologie\nSpitalstrasse 33\nCH-4056 Basel",
			"phone": "+41 61 704 12 12"
		}
	}
]
